Stückliste exportiert aus C:/Users/Matze/Amiga/Hardwarehacks/Multifix-AGA/PCB/MultiFix-AGA-V3b.sch am 29.11.2019 00:16:01

Qty Value               Device              Package    Parts                                                                                              Description                                                                                                                            ALLIED_NUMBER ALLIED_PRICE-STOCK                                                         DESCRIPTION                                                                                                                            HEIGHT MANUFACTURER_NAME MANUFACTURER_PART_NUMBER MF MOUSER_PART_NUMBER MOUSER_PRICE-STOCK MPN OC_FARNELL OC_NEWARK RS_PART_NUMBER RS_PRICE-STOCK                                 SUPPLY
1                       ML10                ML10       JTAG                                                                                               HARTING                                                                                                                                                                                                                                                                                                                                                                                                                                                               unknown    unknown                                                                       
2                       PINHD-2X2_2.54      2X02       JP1, JP3                                                                                           PIN HEADER                                                                                                                                                                                                                                                                                                                                                                                                                                                                                                                                                     
1                       PINHD-2X5_2.54      2X05       USB                                                                                                PIN HEADER                                                                                                                                                                                                                                                                                                                                                                                                                                                                                                                                                     
1                       PINHD-2X7_2.54      2X07       JP2                                                                                                PIN HEADER                                                                                                                                                                                                                                                                                                                                                                                                                                                                                                                                                     
1                       SJ2W                SJ_2       SJ1                                                                                                SMD solder JUMPER                                                                                                                                                                                                                                                                                                                                                                                                                                                                                                                                              
21  100nF               C-EUC0805K          C0805K     C1, C2, C3, C4, C6, C17, C18, C19, C20, C21, C22, C23, C24, C25, C26, C39, C40, C41, C42, C43, C44 CAPACITOR, European symbol                                                                                                                                                                                                                                                                                                                                                                                                                                                                                                                                     
2   100uF               C-7243-T            7243       C31, C33                                                                                                                                                                                                                                                                                                                                                                                                                                                                                                                                                                                                                                                          
1   10R                 R-EU_R0805          R0805      R34                                                                                                RESISTOR, European symbol                                                                                                                                                                                                                                                                                                                                                                                                                                                                                                                                      
1   10UH                10UH                L-10UH     L1                                                                                                                                                                                                                                                                                                                                                                                                                                                                                                                                                                                                                                                                
1   22uF                C-EUC1206K          C1206K     C34                                                                                                CAPACITOR, European symbol                                                                                                                                                                                                                                                                                                                                                                                                                                                                                                                                     
1   2410_05             2410_05             2410_05    J1                                                                                                 Horizontal double USB socket A no ground Lumberg Dual Port Right Angle Version 2.0 Type A USB Connector, Through Hole Socket, 30 V, 1A R1137370      https://www.alliedelec.com/lumberg-automation-hirschmann-2410-05/R1137370/ Horizontal double USB socket A no ground Lumberg Dual Port Right Angle Version 2.0 Type A USB Connector, Through Hole Socket, 30 V, 1A mm     LUMBERG           2410 05                                                                                    7378798        http://uk.rs-online.com/web/p/products/7378798       
2   33                  R-EU_R0805          R0805      R42, R43                                                                                           RESISTOR, European symbol                                                                                                                                                                                                                                                                                                                                                                                                                                                                                                                                      
4   33R                 R-NETZ@3            R-NETZ@2   RN3, RN4, RN5, RN6                                                                                                                                                                                                                                                                                                                                                                                                                                                                                                                                                                                                                                                
2   4.7K                G05R                SIL6       RN1, RN2                                                                                           SIL RESISTOR                                                                                                                                                                                                                                                                                                                                                                                                                                                          unknown    unknown                                                                       
6   4.7K                R-EU_R0805          R0805      R7, R8, R32, R33, R35, R36                                                                         RESISTOR, European symbol                                                                                                                                                                                                                                                                                                                                                                                                                                                                                                                                      
4   4.7k                R-EU_R0805          R0805      R3, R4, R44, R46                                                                                   RESISTOR, European symbol                                                                                                                                                                                                                                                                                                                                                                                                                                                                                                                                      
2   47uF                C-EUC1206K          C1206K     C37, C38                                                                                           CAPACITOR, European symbol                                                                                                                                                                                                                                                                                                                                                                                                                                                                                                                                     
1   560R                R-EU_R0805          R0805      R23                                                                                                RESISTOR, European symbol                                                                                                                                                                                                                                                                                                                                                                                                                                                                                                                                      
3   75R                 R-EU_R0805          R0805      R16, R17, R18                                                                                      RESISTOR, European symbol                                                                                                                                                                                                                                                                                                                                                                                                                                                                                                                                      
1   ADV7120             ADV7120@2           PLCC44S    IC13                                                                                                                                                                                                                                                                                                                                                                                                                                                                                                                                                                                                                                                              
1   AUDIO_JACK_5PEBS_35 AUDIO_JACK_5PEBS_35 EBS_35     J2                                                                                                                                                                                                                                                                                                                                                                                                                                                                                                                                                                                                                                                                
10  EMI.60R             R-EU_R0805          R0805      FB1, FB2, FB3, FB4, FB5, FB6, FB7, FB8, FB9, FB10                                                  RESISTOR, European symbol                                                                                                                                                                                                                                                                                                                                                                                                                                                                                                                                      
1   HF15S               HF15S               HDF15HS    X5                                                                                                                                                                                                                                                                                                                                                                                                                                                                                                                                                                                                                                                                
1   ICS570A/B           ICS570B             SO-8       IC14                                                                                               Multiplier with FBIN=CLK/2:                                                                                                                                                                                                                                                                                                                                                                                                                                                                                                                              3.3V  
1   LD117AS33TR         LD117AS33TR         SOT223     IC5                                                                                                Low drop fixed and adjustable positive voltage regulators 1 A                                                                                                                                                                                                                                                                                                                                                                                                                                                                                                  
1   LKOT-27             LKOT-27-KOMBI       LKOT-27-18 X2                                                                                                                                                                                                                                                                                                                                                                                                                                                                                                                                                                                                                                                                
1   LM385-1.2V          LM385               TO-92      D1                                                                                                 LM385                                                                                                                                                                                                                                                                                                                                                                                                                                                                                                                                                          
6   MSM514221           MSM514221@2         DIP16      IC15, IC16, IC17, IC18, IC19, IC20                                                                                                                                                                                                                                                                                                                                                                                                                                                                                                                                                                                                                                
2   SCHALT-1            SCHALT-1            SCHALT-1   S1, S2                                                                                                                                                                                                                                                                                                                                                                                                                                                                                                                                                                                                                                                            
3   SL3-1               SL3-1               SL3-1      BLANK_SELECT, DDC, SOG                                                                                                                                                                                                                                                                                                                                                                                                                                                                                                                                                                                                                                            
1   SLOT-18             SLOT-18             SLOT-18    X1                                                                                                                                                                                                                                                                                                                                                                                                                                                                                                                                                                                                                                                                
6   UPD42101            UPD42101            DIP24-3    IC6, IC7, IC8, IC9, IC10, IC11                                                                                                                                                                                                                                                                                                                                                                                                                                                                                                                                                                                                                                    
1   XC9572XL-VQ64       XC9572XL-VQ64       VQFP64     IC3                                                                                                                                                                                                                                                                                                                                                                                                                                                                                                                                                                                                                                                               
