Stückliste exportiert aus C:/Users/Matze/Amiga/Hardwarehacks/Multifix-AGA/PCB/MultiFix-AGA.sch am 16.04.2019 21:46:00

Qty Value         Device         Package    Parts                                                                                                                      Description                                                   MF MPN OC_FARNELL OC_NEWARK SUPPLY
1                 F15HDH         HDF15H     X5                                                                                                                         SUB-D                                                                unknown    unknown         
1                 ML10           ML10       JTAG                                                                                                                       HARTING                                                              unknown    unknown         
1                 PINHD-2X7_2.54 2X07       JP2                                                                                                                        PIN HEADER                                                                                      
1                 SJ2W           SJ_2       SJ1                                                                                                                        SMD solder JUMPER                                                                               
1   LKOT-27       LKOT-27-KOMBI  LKOT-27-18 X2                                                                                                                                                                                                                         
3   SL3-1         SL3-1          SL3-1      DDC_GND-SDC-SDA, X3, X4                                                                                                                                                                                                    
1   SLOT-18       SLOT-18        SLOT-18    X1                                                                                                                                                                                                                         
2   SCHALT-1      SCHALT-1       SCHALT-1   S1, S2                                                                                                                                                                                                                     

2   0R            R-EU_R0805     R0805      R1, R2                                                                                                                     RESISTOR, European symbol                                                                       
+1   1R            R-EU_R0805     R0805      R6                                                                                                                         RESISTOR, European symbol                                                                       
+1   10R           R-EU_R0805     R0805      R11                                                                                                                        RESISTOR, European symbol                                                                       
2   33            R-EU_R0805     R0805      R42, R43                                                                                                                   RESISTOR, European symbol                                                                       
4   33R           R-NETZ@3       R-NETZ@2   RN3, RN4, RN5, RN6                                                                                                                                                                                                         
3   75r           R-EU_R0805     R0805      R16, R17, R18                                                                                                              RESISTOR, European symbol                                                                       
+1   100R          R-EU_R0805     R0805      R9                                                                                                                         RESISTOR, European symbol                                                                       
1   330R          R-EU_R0805     R0805      R34                                                                                                                        RESISTOR, European symbol                                                                       
+1   470R          R-EU_R0805     R0805      R10                                                                                                                        RESISTOR, European symbol                                                                       
1   562R          R-EU_R0805     R0805      R23                                                                                                                        RESISTOR, European symbol                                                                       
+1   1K            TRIM-G3@4      R-POT-L    R26                                                                                                                                                                                                                        
2   1k            G05R           SIL6       RN1, RN2                                                                                                                   SIL RESISTOR                                                         unknown    unknown         
9   1k            R-EU_R0805     R0805      R7, R8, +R20, +R21, +R22, R32, R33, R35, R36                                                                                  RESISTOR, European symbol                                                                       
1   3k3           R-EU_R0805     R0805      R31                                                                                                                        RESISTOR, European symbol                                                                       
+1   3k32          R-EU_R0805     R0805      R12                                                                                                                        RESISTOR, European symbol                                                                       
3   4.7k          R-EU_R0805     R0805      R45, R46, R47                                                                                                              RESISTOR, European symbol                                                                       
+1   47k           R-EU_R0805     R0805      R3                                                                                                                         RESISTOR, European symbol                                                                       

+1   1-5pF         C-TRIM@3       C-TRIM-1   C16                                                                                                                                                                                                                        
+1   7.5pF         C-EUC0805K     C0805K     C12                                                                                                                        CAPACITOR, European symbol                                                                      
+1   39pF          C-EUC0805K     C0805K     C14                                                                                                                        CAPACITOR, European symbol                                                                      
+3   100pF         C-EUC0805K     C0805K     C8, C15, C32                                                                                                               CAPACITOR, European symbol                                                                      
+2   1nF           C-EUC0805K     C0805K     C4, C5                                                                                                                     CAPACITOR, European symbol                                                                      
26  100nF         C-EUC0805K     C0805K     C1, C2, C3, C6, +C7, C9, +C10, +C11, C13, C17, C18, C19, C20, C21, C22, C23, C24, C25, C26, C27, C39, C40, C41, C42, C43, C44 CAPACITOR, European symbol                                                                      
2   100uF         C-7243-T       7243       C31, C33                                                                                                                                                                                                                   
+1   10uF          C-EUC1206K     C1206K     C35                                                                                                                        CAPACITOR, European symbol                                                                      
1   33uF          C-EUC1206K     C1206K     C34                                                                                                                        CAPACITOR, European symbol                                                                      
2   47uF          C-EUC1206K     C1206K     C37, C38                                                                                                                   CAPACITOR, European symbol                                                                      

1   10UH          10UH           L-10UH     L1                                                                                                                                                                                                                         

+1   74F163        74160@2        DIP16      IC1                                                                                                                                                                                                                        
+1   74HC04        74HC04D        SO14       IC4                                                                                                                        Hex INVERTER                                                                                    
+1   NE564         NE564@2        DIP16      IC2                                                                                                                                                                                                                        


1   ADV7120       ADV7120@2      PLCC44S    IC13                                                                                                                                                                                                                       

8   EMI.31R       R-EU_R0805     R0805      +R4, +R5, R13, R14, R15, +R19, R27, R28                                                                                       RESISTOR, European symbol                                                                       
1   EMI.48R       R-EU_R0805     R0805      R24                                                                                                                        RESISTOR, European symbol                                                                       

1   ICL8069       ICL8069        TO92-2     D1                                                                                                                                                                                                                         

1   ICS570A       ICS570B        SO-8       IC14                                                                                                                       Multiplier with FBIN=CLK/2:                                                               3.3V  
1   LD117AS33TR   LD117AS33TR    SOT223     IC5                                                                                                                        Low drop fixed and adjustable positive voltage regulators 1 A                                   
1   XC9572XL-VQ64 XC9572XL-VQ64  VQFP64     IC3                                                                                                                                                                                                                        


6   MSM514221     MSM514221@2    DIP16      IC15, IC16, IC17, IC18, IC19, IC20                                                                                                                                                                                         
6   UPD42101      UPD42101       DIP24-3    IC6, IC7, IC8, IC9, IC10, IC11                                                                                                                                                                                             
4   n.b.          R-EU_R0805     R0805      R25, R29, R30, R44                                                                                                         RESISTOR, European symbol                                                                       
